Intro to Stan
…
---

# Hierarchical models in Stan

--

Who's the best batter in baseball?

```r
arrange(career, desc(average), desc(AB))
```

```
## # A tibble: 9,509 x 4
##    name                 H    AB average
##    <chr>            <int> <int>   <dbl>
##  1 John Paciorek        3     3       1
##  2 Steve Biras          2     2       1
##  3 Mike Hopkins         2     2       1
##  4 Jeff Banister        1     1       1
##  5 Doc Bass             1     1       1
##  6 C. B. Burns          1     1       1
##  7 Jackie Gallagher     1     1       1
##  8 Roy Gleason          1     1       1
##  9 Steve Kuczek         1     1       1
## 10 Dave Liddell         1     1       1
## # ... with 9,499 more rows
```
…
---

# Results

```r
career_adjusted %>%
    arrange(desc(adj_average))
```

```
## # A tibble: 9,509 x 5
##    name                     H    AB average adj_average
##    <chr>                <int> <int>   <dbl>       <dbl>
##  1 Rogers Hornsby        2930  8173   0.358       0.355
##  2 Shoeless Joe Jackson  1772  4981   0.356       0.350
##  3 Ed Delahanty          2596  7505   0.346       0.342
##  4 Billy Hamilton        2158  6268   0.344       0.340
##  5 Willie Keeler         2932  8591   0.341       0.338
##  6 Harry Heilmann        2660  7787   0.342       0.338
##  7 Bill Terry            2193  6428   0.341       0.337
##  8 Lou Gehrig            2721  8001   0.340       0.337
##  9 Nap Lajoie            3242  9589   0.338       0.335
## 10 Tony Gwynn            3141  9288   0.338       0.335
## # ... with 9,499 more rows
```
…
